**The Boys**
{
  "creator": "Eric Kripke",
  "casts": [
    " Karl Urban",
    "Jack Quaid",
    "Antony Starr",
    "Erin Moriarty",
    "Dominique McElligott",
    "Jessie T. Usher"
  ]
}
**Terminator**
{
   "creator": "James Cameron",
  "casts": [
    "Arnold Schwarzenegger",
    "Linda Hamilton",
    "Michael Biehn",
    "Paul Winfield",
    "Lance Henriksen",
    "Rick Rossovich"
  ]
}
**Mirazapur ***
{
   "creator": " Puneet Krishna, Karan Anshuman",
  "casts": [
    "Pankaj Tripathi,",
    "Ali Fazal",
    "Divyendu Sharma ",
    "Shweta Tripathi",
    "Rasika Dugal",
    "Shaji Chaudhary"
  ]
}
